Date,Dollar Change,Description
12/31/2020,-18,Service Charge      
12/22/2020,222.11,Github Sponsors Payout
12/14/2020,-13.11,Sponsoring Open Source
12/14/2020,-13.11,Sponsoring Open Source
12/14/2020,-6.56,Sponsoring Open Source
11/30/2020,-18,Service Charge      
11/23/2020,168.61,Github Sponsors Payout
10/30/2020,18.12,Adding funds from Stripe
10/22/2020,111.28,Github Sponsors Payout
10/20/2020,164.03,Transferring Paypal Donations
10/14/2021,-29.43,Sponsoring Open Source
09/29/2021,-20,Service Charge      
09/22/2021,290.87,Github Sponsors Payout
09/21/2021,-10.58,Sponsoring Open Source
09/14/2021,-26.04,Sponsoring Open Source
08/31/2021,-20,Service Charge      
08/23/2021,306.46,Github Sponsors Payout
08/16/2021,-25.7,Sponsoring Open Source
07/30/2021,-20,Service Charge      
07/29/2021,-250,Adding Funds to Paypal
07/26/2021,-150,Transfer to Founder
07/22/2021,301.05,Github Sponsors Payout
07/14/2021,-25.71,Sponsoring Open Source
06/30/2021,-20,Service Charge      
06/29/2021,-500,Transfer to Founder
06/28/2021,-600,Transfer to Founder
06/25/2021,960,Open Core Summit Grant Authorized by Joseph Jacks
06/23/2021,-400,Adding Funds to Paypal
06/22/2021,320.13,Github Sponsors Payout
06/14/2021,-24.97,Sponsoring Open Source
05/31/2021,-4.04,Digital Ocean Infrastructure Costs
05/31/2021,-20,Service Charge      
05/25/2021,297.95,Github Sponsors Payout
05/14/2021,-44.62,Sponsoring Open Source
04/30/2021,-20,Service Charge      
04/26/2021,-7.69,Sponsoring Open Source
04/22/2021,371.7,Github Sponsors Payout
04/14/2021,-45.32,Sponsoring Open Source
03/31/2021,-20,Service Charge      
03/22/2021,218.29,Github Sponsors Payout
03/15/2021,-38.67,Sponsoring Open Source
02/26/2021,-18,Service Charge      
02/22/2021,136.28,Github Sponsors Payout
02/22/2021,-6.52,Sponsoring Open Source
02/16/2021,-32.71,Sponsoring Open Source
01/29/2021,-18,Service Charge      
01/22/2021,191.87,Github Sponsors Payout
01/14/2021,-32.67,Sponsoring Open Source
10/12/2021,-6.44,Sponsoring Open Source
10/12/2021,-50,Transfer to Founder
08/11/2021,-500,Adding Funds to Paypal
05/11/2021,-6.23,Sponsoring Open Source
08/09/2021,500,Funds from Founder
10/07/2021,-150,Adding Funds to Paypal
04/07/2021,-350,Adding Funds to Paypal
01/07/2021,-200,Adding Funds to Paypal
04/05/2021,-6.46,Sponsoring Open Source
03/04/2021,-250,Adding Funds to Paypal
01/04/2021,-7.4,Digital Ocean Infrastructure Costs
08/03/2021,-10.42,Digital Ocean Infrastructure Costs
07/02/2021,-10.37,Digital Ocean Infrastructure Costs
07/02/2021,150,Funds from Founder
07/02/2021,-250,Transfer to Founder
10/01/2021,-10.65,Digital Ocean Infrastructure Costs
09/01/2021,-250,Adding Funds to Paypal
09/01/2021,-10.56,Digital Ocean Infrastructure Costs
03/01/2021,-3.45,Digital Ocean Infrastructure Costs
02/01/2021,-57.26,Digital Ocean Infrastructure Costs
08/10/2020,20,Opening Deposit
11/09/2020,-53.71,Bitwarden Team Vault Purchase
11/02/2020,-11.4,Digital Ocean Infrastructure Costs
12/01/2020,-5.26,Digital Ocean Infrastructure Costs
09/01/2020,-9.24,Digital Ocean Infrastructure Costs